%YAML 1.1
%TAG !u! tag:unity3d.com,2011:
--- !u!65 &5802033634672160743
BoxCollider:
  m_ObjectHideFlags: 0
  m_CorrespondingSourceObject: {fileID: 0}
  m_PrefabInstance: {fileID: 0}
  m_PrefabAsset: {fileID: 0}
  m_GameObject: {fileID: 8195373784633416332}
  m_Material: {fileID: 0}
  m_IsTrigger: 0
  m_Enabled: 1
  serializedVersion: 2
  m_Size: {x: 10.668831, y: 6.069744, z: 15.789494}
  m_Center: {x: -5, y: 3.0348716, z: -7.424368}
--- !u!1001 &8194377473807281010
PrefabInstance:
  m_ObjectHideFlags: 0
  serializedVersion: 2
  m_Modification:
    m_TransformParent: {fileID: 0}
    m_Modifications:
    - target: {fileID: 1011468340392446, guid: 4792c06511517bd459dd4bdc1aa5f0f6, type: 3}
      propertyPath: m_Name
      value: SM_Bld_Warehouse_01
      objectReference: {fileID: 0}
    - target: {fileID: 1011468340392446, guid: 4792c06511517bd459dd4bdc1aa5f0f6, type: 3}
      propertyPath: m_StaticEditorFlags
      value: 4294967295
      objectReference: {fileID: 0}
    - target: {fileID: 1011468340392446, guid: 4792c06511517bd459dd4bdc1aa5f0f6, type: 3}
      propertyPath: m_Layer
      value: 13
      objectReference: {fileID: 0}
    - target: {fileID: 1199726076612074, guid: 4792c06511517bd459dd4bdc1aa5f0f6, type: 3}
      propertyPath: m_StaticEditorFlags
      value: 4294967295
      objectReference: {fileID: 0}
    - target: {fileID: 1199726076612074, guid: 4792c06511517bd459dd4bdc1aa5f0f6, type: 3}
      propertyPath: m_Layer
      value: 13
      objectReference: {fileID: 0}
    - target: {fileID: 1572852701712084, guid: 4792c06511517bd459dd4bdc1aa5f0f6, type: 3}
      propertyPath: m_StaticEditorFlags
      value: 4294967295
      objectReference: {fileID: 0}
    - target: {fileID: 1572852701712084, guid: 4792c06511517bd459dd4bdc1aa5f0f6, type: 3}
      propertyPath: m_Layer
      value: 13
      objectReference: {fileID: 0}
    - target: {fileID: 1928055988450310, guid: 4792c06511517bd459dd4bdc1aa5f0f6, type: 3}
      propertyPath: m_StaticEditorFlags
      value: 4294967295
      objectReference: {fileID: 0}
    - target: {fileID: 1928055988450310, guid: 4792c06511517bd459dd4bdc1aa5f0f6, type: 3}
      propertyPath: m_Layer
      value: 13
      objectReference: {fileID: 0}
    - target: {fileID: 1975423040151794, guid: 4792c06511517bd459dd4bdc1aa5f0f6, type: 3}
      propertyPath: m_StaticEditorFlags
      value: 4294967295
      objectReference: {fileID: 0}
    - target: {fileID: 1975423040151794, guid: 4792c06511517bd459dd4bdc1aa5f0f6, type: 3}
      propertyPath: m_Layer
      value: 13
      objectReference: {fileID: 0}
    - target: {fileID: 4096171089138600, guid: 4792c06511517bd459dd4bdc1aa5f0f6, type: 3}
      propertyPath: m_LocalPosition.x
      value: -11
      objectReference: {fileID: 0}
    - target: {fileID: 4096171089138600, guid: 4792c06511517bd459dd4bdc1aa5f0f6, type: 3}
      propertyPath: m_LocalPosition.y
      value: 0
      objectReference: {fileID: 0}
    - target: {fileID: 4096171089138600, guid: 4792c06511517bd459dd4bdc1aa5f0f6, type: 3}
      propertyPath: m_LocalPosition.z
      value: -6
      objectReference: {fileID: 0}
    - target: {fileID: 4096171089138600, guid: 4792c06511517bd459dd4bdc1aa5f0f6, type: 3}
      propertyPath: m_LocalRotation.x
      value: 0
      objectReference: {fileID: 0}
    - target: {fileID: 4096171089138600, guid: 4792c06511517bd459dd4bdc1aa5f0f6, type: 3}
      propertyPath: m_LocalRotation.y
      value: -0
      objectReference: {fileID: 0}
    - target: {fileID: 4096171089138600, guid: 4792c06511517bd459dd4bdc1aa5f0f6, type: 3}
      propertyPath: m_LocalRotation.z
      value: -0
      objectReference: {fileID: 0}
    - target: {fileID: 4096171089138600, guid: 4792c06511517bd459dd4bdc1aa5f0f6, type: 3}
      propertyPath: m_LocalRotation.w
      value: 1
      objectReference: {fileID: 0}
    - target: {fileID: 4096171089138600, guid: 4792c06511517bd459dd4bdc1aa5f0f6, type: 3}
      propertyPath: m_RootOrder
      value: 0
      objectReference: {fileID: 0}
    - target: {fileID: 4096171089138600, guid: 4792c06511517bd459dd4bdc1aa5f0f6, type: 3}
      propertyPath: m_LocalEulerAnglesHint.x
      value: 0
      objectReference: {fileID: 0}
    - target: {fileID: 4096171089138600, guid: 4792c06511517bd459dd4bdc1aa5f0f6, type: 3}
      propertyPath: m_LocalEulerAnglesHint.y
      value: 0
      objectReference: {fileID: 0}
    - target: {fileID: 4096171089138600, guid: 4792c06511517bd459dd4bdc1aa5f0f6, type: 3}
      propertyPath: m_LocalEulerAnglesHint.z
      value: 0
      objectReference: {fileID: 0}
    m_RemovedComponents:
    - {fileID: 65495254088497530, guid: 4792c06511517bd459dd4bdc1aa5f0f6, type: 3}
    - {fileID: 65772627986229664, guid: 4792c06511517bd459dd4bdc1aa5f0f6, type: 3}
    - {fileID: 65106217714324206, guid: 4792c06511517bd459dd4bdc1aa5f0f6, type: 3}
    - {fileID: 65345894940785810, guid: 4792c06511517bd459dd4bdc1aa5f0f6, type: 3}
    - {fileID: 65140875064043474, guid: 4792c06511517bd459dd4bdc1aa5f0f6, type: 3}
    - {fileID: 65200116993477932, guid: 4792c06511517bd459dd4bdc1aa5f0f6, type: 3}
    - {fileID: 65590196360943832, guid: 4792c06511517bd459dd4bdc1aa5f0f6, type: 3}
    - {fileID: 65944287563648696, guid: 4792c06511517bd459dd4bdc1aa5f0f6, type: 3}
  m_SourcePrefab: {fileID: 100100000, guid: 4792c06511517bd459dd4bdc1aa5f0f6, type: 3}
--- !u!1 &8195373784633416332 stripped
GameObject:
  m_CorrespondingSourceObject: {fileID: 1011468340392446, guid: 4792c06511517bd459dd4bdc1aa5f0f6,
    type: 3}
  m_PrefabInstance: {fileID: 8194377473807281010}
  m_PrefabAsset: {fileID: 0}
