%YAML 1.1
%TAG !u! tag:unity3d.com,2011:
--- !u!114 &11400000
MonoBehaviour:
  m_ObjectHideFlags: 0
  m_CorrespondingSourceObject: {fileID: 0}
  m_PrefabInstance: {fileID: 0}
  m_PrefabAsset: {fileID: 0}
  m_GameObject: {fileID: 0}
  m_Enabled: 1
  m_EditorHideFlags: 0
  m_Script: {fileID: 11500000, guid: 07c191d3a2fc52f458ed8ab6c23867f0, type: 3}
  m_Name: LethalExecution
  m_EditorClassIdentifier: 
  Id: 4
  Name: Lethal Execution
  AbilityRange: 1
  AbilityType: 1
  AbilityTargetType: 0
  Damage: 150
  Range: 15
  Cooldown: 16
  Radius: 4
  AnimationCooldown: 0.3
  GlobalCooldown: 0
  CoolDownRemaining: 0
  AutoCastNextAbility: 0
