%YAML 1.1
%TAG !u! tag:unity3d.com,2011:
--- !u!114 &11400000
MonoBehaviour:
  m_ObjectHideFlags: 0
  m_CorrespondingSourceObject: {fileID: 0}
  m_PrefabInstance: {fileID: 0}
  m_PrefabAsset: {fileID: 0}
  m_GameObject: {fileID: 0}
  m_Enabled: 1
  m_EditorHideFlags: 0
  m_Script: {fileID: 11500000, guid: 07c191d3a2fc52f458ed8ab6c23867f0, type: 3}
  m_Name: ShadowLotus
  m_EditorClassIdentifier: 
  Id: 2
  Name: Shadow Lotus
  AbilityRange: 1
  AbilityType: 1
  AbilityTargetType: 4
  Damage: 50
  RequiredRange: 4
  Cooldown: 5
  Radius: 3
  AnimationCooldown: 0.3
  GlobalCooldown: 0
  CoolDownRemaining: 0
  AutoCastNextAbility: 0
